https://raw.githubusercontent.com/leeychee/hackerrank/master/practice/algorithms/strings/weighted_uniform_string/main.go
https://raw.githubusercontent.com/charles-wangkai/hackerrank/master/weighted-uniform-string/Solution.java
https://raw.githubusercontent.com/Shwaubh/HackerrankSolutions/master/easy/string/Weighted%20Uniform%20Strings.py
