https://raw.githubusercontent.com/pastelito02/Challenges-sol/master/Programming/codewars/find-multiples-of-a-number/fabsrc.cr
https://raw.githubusercontent.com/pastelito02/Challenges-sol/master/Programming/codewars/find-multiples-of-a-number/Uemoe.cs
https://raw.githubusercontent.com/pastelito02/Challenges-sol/master/Programming/codewars/find-multiples-of-a-number/weliketocode.js
