https://raw.githubusercontent.com/Gamer1092/Coderbyte-Medium/Medium/Bracket%20Matcher.cpp
https://raw.githubusercontent.com/ZLester/Coderbyte-Solutions/master/Medium/22%20-%20Bracket%20Matcher.js
https://raw.githubusercontent.com/tomyancey/coderbyte_solutions/master/bracket_matcher.rb
