https://www.youtube.com/watch?v=0Ck2eWD6NBA
https://www.youtube.com/watch?v=dFSTFTgdQ-Q
https://www.youtube.com/watch?v=3mIOboabiVQ
https://www.wordfence.com/learn/how-to-prevent-file-upload-vulnerabilities/
https://www.youtube.com/watch?v=3KGqGH6g15s
https://www.youtube.com/watch?v=4g2uwJ7H7zM
https://www.youtube.com/watch?v=G4gX-Am6IJ0
https://www.youtube.com/watch?v=enpDJ8MfiC8
https://www.youtube.com/watch?v=FQru91tyyp4
https://www.youtube.com/watch?v=tY4vJtTuQbQ
https://www.hackingarticles.in/file-upload-exploitation-bwapp-bypass-security/
https://www.youtube.com/watch?v=drcru-MI2sI
https://www.youtube.com/watch?v=nap4ELhsv-w
https://www.youtube.com/watch?v=O8v-xgNklsQ
https://www.youtube.com/watch?v=hUh1kaouyj0
https://www.youtube.com/watch?v=lWoxAjvgiHs
https://www.youtube.com/watch?v=lNyOCdOV9Os
https://www.youtube.com/watch?v=lUKEAFXfPnE
https://www.youtube.com/watch?v=1P69Npi2g4s
https://www.youtube.com/watch?v=Ha7nEet0AtA
https://www.youtube.com/watch?v=dPNOGYCdr-c
https://www.youtube.com/watch?v=3052Dmg5fng
