https://raw.githubusercontent.com/guillaume-nargeot/project-euler-clojure/master/src/project_euler/problem_124.clj
https://raw.githubusercontent.com/nayuki/Project-Euler-solutions/master/java/p124.java
https://raw.githubusercontent.com/nayuki/Project-Euler-solutions/master/python/p124.py
