https://raw.githubusercontent.com/linuxp3nguin/microcorruption-1/master/CTF/SC
http://piratezpdx.blogspot.com.co/2015/01/microcorruption-santa-cruz.html
https://rakshacks.wordpress.com/2016/08/18/microcorruption-santa-cruz/
http://jpaglier.blogspot.com.co/2015/02/microcorruption-ix-santa-cruz.html
https://www.youtube.com/watch?v=VSBH1GoaYG0
https://github.com/ciz/microcorruption#santa-cruz
