https://raw.githubusercontent.com/davearonson/exercism-solutions/master/elixir/matrix/matrix.exs
https://raw.githubusercontent.com/exercism/go/master/exercises/matrix/matrix_test.go
https://raw.githubusercontent.com/tfausak/exercism-solutions/master/haskell/matrix/Matrix.hs
https://raw.githubusercontent.com/ozan/solutions/master/exercism/java/matrix/src/test/java/MatrixTest.java
https://raw.githubusercontent.com/exercism/javascript/master/exercises/matrix/example.js
https://raw.githubusercontent.com/exercism/ruby/master/exercises/matrix/matrix_test.rb
https://raw.githubusercontent.com/ChrisWilding/exercism-scala/master/matrix/src/test/scala/MatrixTest.scala
https://raw.githubusercontent.com/exercism/swift/master/exercises/matrix/Tests/MatrixTests/MatrixTests.swift
https://raw.githubusercontent.com/exercism/perl5/master/exercises/matrix/matrix.t
