http://www.cnblogs.com/Martinium/p/net-force_nl_programming.html
https://github.com/djcomidi/netforce/tree/master/programming/level608
https://github.com/luceatnobis/challenges/tree/master/net-force.nl/multiple
