https://raw.githubusercontent.com/lllllll-llll-llllll/codeabbey_autoit/master/29.au3
https://raw.githubusercontent.com/phuclevinh2000/CodeAbbey/master/Sort%20with%20Indexes.c
https://raw.githubusercontent.com/pastelito02/Challenges-sol/master/Programming/Codeabbey/029/dusan_krmar.cc
https://raw.githubusercontent.com/gravoo/codeabbey/master/Sort%20with%20Indexes.cpp
https://raw.githubusercontent.com/AleksandrSD/CodeAbbeyProblems/master/Problem29/Program.cs
https://raw.githubusercontent.com/pastelito02/Challenges-sol/master/Programming/Codeabbey/029/Ratzenfutz.d
https://raw.githubusercontent.com/pastelito02/Challenges-sol/master/Programming/Codeabbey/029/siloimwald.fs
https://raw.githubusercontent.com/pastelito02/Challenges-sol/master/Programming/Codeabbey/029/sithrawi.go
https://raw.githubusercontent.com/pastelito02/Challenges-sol/master/Programming/Codeabbey/029/danielmmetz.hs
https://raw.githubusercontent.com/KlaudioVito/CodeAbbey/master/SortWithIndexes.java
https://raw.githubusercontent.com/pastelito02/Challenges-sol/master/Programming/Codeabbey/029/Zacharias.jl
https://raw.githubusercontent.com/McQuinTrix/CodeAbbey/master/29.%20Sort_with_Indexes.js
https://raw.githubusercontent.com/mertturkmenoglu/kotlin-examples/8c00340f721dafc5f8253802b63d478d4ad78495/src/main/kotlin/practice/problemSolving/e063_PseudoNumbers/Main.kt
https://raw.githubusercontent.com/chriswood/codeabbey/master/caid29.lisp
https://raw.githubusercontent.com/pastelito02/Challenges-sol/master/Programming/Codeabbey/029/WyattMarks.lua
https://raw.githubusercontent.com/pastelito02/Challenges-sol/master/Programming/Codeabbey/029/stefan.schmiedl.ml
https://raw.githubusercontent.com/mpeshehonov/Codeabbey/master/practice/%2329/index.php
https://raw.githubusercontent.com/ValeWasTaken/CodeAbbey_Solutions/master/Python/id029-Sort_with_Indexes.py
https://raw.githubusercontent.com/John-Russell/CodeAbbey/master/Sort%20with%20Indexes.rb
https://gitlab.com/CodeArtisan/codeabbey/raw/master/problem_29/solution.rkt
https://raw.githubusercontent.com/pastelito02/Challenges-sol/master/Programming/Codeabbey/029/serviceable.rs
https://raw.githubusercontent.com/mmcdon20/code_abbey/master/src/main/scala/Abbey029.scala
https://raw.githubusercontent.com/NazarethAguileraMeanStack/100AlgorithmsChallenge/2d44b54c3704548b0fff45bab283dc987e0227ec/v2/convertCelsiusToFahrenheit.ts
https://raw.githubusercontent.com/pastelito02/Challenges-sol/master/Programming/Codeabbey/029/Genek_proger.vb
https://raw.githubusercontent.com/JesseClarkND/codeabbey_in_C-NET/master/Average%20of%20an%20array
