https://raw.githubusercontent.com/feix/ctf-writeup/master/canyouhackit/script/solution2
https://sithlab.tistory.com/1441
https://raw.githubusercontent.com/pastelito02/Challenges-sol/master/canyouhackit/Scripts/solution2.lst
