https://raw.githubusercontent.com/RobotRoom/Hamming/master/Hamming.c
https://raw.githubusercontent.com/mahdavipanah/hamcode/master/hamcode.go
https://raw.githubusercontent.com/JanCas/Hamming_Code/master/src/Hamming.java
https://raw.githubusercontent.com/Hai-Vasyl/cryptography-hamming-code/master/script.js
https://raw.githubusercontent.com/absingh31/HammingCode/master/hamming.py
