https://gist.githubusercontent.com/kordano/008df4f240e1cc3438c4db87a252c49e/raw/916b03192d649d4968cf3cbfd2ad0c8b83d481c4/encryption.clj
https://gist.githubusercontent.com/zachbonham/3692542/raw/a20fedd2e2172cda23f1b9d3679018b0cfefb178/crypto.cs
https://raw.githubusercontent.com/mikhaildubov/RSA-in-FSharp/master/RSA%20Cryptosystem/RSA.fs
https://raw.githubusercontent.com/luckyp71/Cryptography-with-Java/master/src/classes/encryptdecryptclass.java
https://gist.githubusercontent.com/shgysk8zer0/b519edd5ecea9b009aaf1e59f335dba5/raw/b5de32679d941b7eb8ddfeb2c8ec41caadf1f5b4/index.php
https://gist.githubusercontent.com/cmatthews85/b9007f3acb33fa7d1c18/raw/7743b289f9c1123734c55c992e849c2b47049b4f/public_key.py
https://raw.githubusercontent.com/joshwetzel/cryptosystem/master/lib/cryptosystem/rsa.rb
https://gist.githubusercontent.com/urcadox/6173812/raw/84aa48c416da9119bdeb1254301420c1b39e0334/RSA.scala
