https://netosec.com/swagshop-hackthebox-writeup/
https://www.abhizer.com/swagshop-hackthebox-walkthrough/
https://0xdf.gitlab.io/2019/09/28/htb-swagshop.html
https://medium.com/@arkanoidctf/hackthebox-writeup-swagshop-20ac463f4ef7
https://www.youtube.com/watch?v=qECG2_8xw_s
https://hackso.me/swagshop-htb-walkthrough/
https://0xrick.github.io/hack-the-box/swagshop/
https://initinfosec.com/writeups/htb/2020/02/01/swagshop-htb-writeup/
https://www.elasticice.net/posts/swagshop_htb_walkthrough/
https://www.webyeti.ninja/blog/htb-swagshop
