https://raw.githubusercontent.com/smokeleeteveryday/CTF_WRITEUPS/master/2015/BACKDOORCTF/crypto/rsalot/README.md
https://raw.githubusercontent.com/ctfs/write-ups-2015/master/backdoor-ctf-2015/crypto/rsalot/README.md
https://gist.githubusercontent.com/Bono-iPad/e908ddc67b3994069950/raw/23e7f8dc87d331a8ac67b9b0d7cbc8d2bfd9c3b6/writeup.txt
