https://raw.githubusercontent.com/rdtsc/codeeval-solutions/master/src/easy/racing-chars/solutions/c/solution.c
https://raw.githubusercontent.com/rdtsc/codeeval-solutions/master/src/easy/racing-chars/solutions/c%2B%2B/solution.cpp
https://raw.githubusercontent.com/AvetisG/CodeEval/master/01%20-%20Easy/C%23/RacingChars/RacingCharsSolution.cs
https://gitlab.com/agaskell/codeeval/-/raw/master/136/136.go
https://raw.githubusercontent.com/pascal-bourut/codeeval-challenges/master/easy/136%20-%20Racing%20chars/136.js
https://raw.githubusercontent.com/mneudert/codeeval/master/easy/racing-chars/php.php
https://raw.githubusercontent.com/mpillar/codeeval/master/0-easy/racing-cars/main.py
https://raw.githubusercontent.com/pluralism/CodeEval/master/Racing%20Chars.rb
