https://www.youtube.com/watch?v=H3t3G70bakM&t
https://0xrick.github.io/hack-the-box/networked/
https://medium.com/@noobintheshell/htb-networked-writeup-aa71bff6baa
https://thegeekbin.com/htb-networked-write-up/
https://www.nav1n.com/2019/11/hack-the-box-networked-writeup-10-10-10-146/
https://davidhamann.de/2019/12/04/htb-writeup-networked/
https://raw.githubusercontent.com/Hackplayers/hackthebox-writeups/master/machines/Networked/Hilbert-Networked.pdf
https://raw.githubusercontent.com/Hackplayers/hackthebox-writeups/master/machines/Networked/humurabbi-Networked.pdf
https://snowscan.io/htb-writeup-networked/
https://initinfosec.com/writeups/htb/2020/02/03/networked-htb-writeup/
https://xavilok.es/networked/
https://hackso.me/networked-htb-walkthrough/
https://theblocksec.com/2019/11/16/hack-the-box-networked-box-writeup-by-nikhil-sahoo/
https://phaz0n.github.io/writeup/2019/11/16/networked-writeup/
https://infosec.rm-it.de/2019/11/16/hackthebox-networked/
https://khaoticdev.net/?p=695
https://www.hackingarticles.in/hack-the-box-networked-walkthrough/
https://d7x.promiselabs.net/2019/11/16/htb-networked-walkthrough/
https://www.newsbreak.com/news/0OAESYg9/hack-the-box-htb-machines-walkthrough-series-networked
