https://raw.githubusercontent.com/mpillar/codeeval/master/1-moderate/decimal-to-binary/main.cpp
https://raw.githubusercontent.com/mpyrozhok/coding-challenges/master/codeeval/haskell/moderate/decimaltobinary.hs
https://raw.githubusercontent.com/mpillar/codeeval/master/1-moderate/decimal-to-binary/DecimalToBinary.java
