https://metasploit.help.rapid7.com/docs/metasploitable-2-exploitability-guide
https://stuffwithaurum.blog/2015/06/14/metasploitable-2-walkthrough-an-exploitation-guide/
https://www.youtube.com/watch?v=0EmbAJWa45Q
http://emrekacmaz.com/2017/08/29/metasploitable-2-varsayilan-kullanici-adi-ve-parolametasploitable-default-username-and-password/
https://metaspolitable2.wordpress.com/2017/10/06/first-blog-post/
https://ianlee1521.com/2018/03/25/metasploitable2/
https://resources.infosecinstitute.com/metasploitable-2-walkthrough/
https://www.youtube.com/watch?v=Rb-iFdB8di8
https://www.youtube.com/watch?v=IUAGkoVGaVM
https://www.tutorialspoint.com/metasploit/metasploit_quick_guide.htm
https://gist.githubusercontent.com/apolloclark/78687df9a04aaf23aa3cd59415530694/raw/8b271ed310e413547e1cbd2965ecd4cb1e3130f8/Kali%2520Linux%25202016.2%2520-%2520Metasploitable%2520Tutorial.md
https://goldenhacking.wordpress.com/2018/04/17/metasploitable-2-penetration-testing-tutorial/
https://hackingandsecurity.blogspot.com/2016/06/metasploitable-2.html?view=classic
https://chousensha.github.io/blog/2014/06/03/pentest-lab-metasploitable-2/
