https://github.com/mzet-/ctf-writeups/tree/master/ctf.infosecinstitute.com#level-11
https://www.556forensics.com/2015/03/19/ctf-infosec-institute-n00bs-ctf-challenge/
https://shellnux.in/2015/03/level-11/
https://ctfcrew.org/writeup/99
