47 117
12 14
25 34
44 0
15 13
41 8
25 39
9 8
30 18
41 24
18 28
20 3
30 7
29 23
12 46
42 22
25 16
33 17
45 6
5 16
8 27
12 16
8 7
39 1
16 36
21 24
34 12
4 9
31 34
22 17
37 20
29 30
19 17
19 20
24 13
39 21
46 9
10 38
22 1
46 38
23 27
35 26
12 42
16 43
43 37
39 29
9 44
6 34
3 40
21 22
6 5
15 36
17 8
14 2
12 18
1 5
19 30
23 35
46 45
18 2
22 14
41 39
32 36
18 0
24 11
20 25
33 0
9 29
15 0
39 22
10 15
25 4
46 41
3 12
1 28
0 32
38 28
33 12
26 30
45 36
21 8
43 32
1 45
37 9
33 44
2 1
5 23
44 40
37 11
25 28
24 36
11 4
12 28
28 17
39 0
31 1
3 9
26 9
43 25
29 42
38 17
26 10
23 3
22 35
6 44
23 11
25 45
13 14
31 5
35 31
30 5
34 40
30 32
40 37
11 3
16 31
46 15
23 42
