https://raw.githubusercontent.com/lllllll-llll-llllll/codeabbey_autoit/master/41.au3
https://raw.githubusercontent.com/phuclevinh2000/CodeAbbey/master/Median%20of%20Three.c
https://raw.githubusercontent.com/spokenlore/CodeAbbey/master/Beginner/10.%20median/median.cpp
https://raw.githubusercontent.com/Tempurturtul/CodeAbbey/master/C%23/MedianOfThree.cs
https://raw.githubusercontent.com/SebastianHerrera/DartProblems/master/median_of_three.dart
https://raw.githubusercontent.com/vinitkantrod/go-codeabbey/master/10_median_of_three/main.go
https://raw.githubusercontent.com/emafazillah/codeabbey/master/src/problem041To050/MedianOfThree.java
https://raw.githubusercontent.com/McQuinTrix/CodeAbbey/master/41.%20Median_of_Three.js
https://raw.githubusercontent.com/jeilow/codeabbey/master/problem_41.m
https://raw.githubusercontent.com/mpeshehonov/Codeabbey/master/practice/%2341/index.php
https://raw.githubusercontent.com/Xzya/CodeAbbeySolutions/master/MedianOfThree.py
https://raw.githubusercontent.com/marclerodrigues/ruby_exercises/master/median_of_three.rb
https://raw.githubusercontent.com/mmcdon20/code_abbey/master/src/main/scala/Abbey041.scala
