https://mrh4sh.github.io/vulnix-solution
https://fwhibbit.blogspot.com/2016/06/auditando-vulnix-vulnhub.html?m=1
http://ly0n.me/2015/06/18/hacking-series-vulnix/
http://devloop.users.sourceforge.net/index.php?article95/solution-du-ctf-hacklab-vulnix
https://www.it-connect.fr/vulnix-solution-et-explications/
https://www.rebootuser.com/?p=988
https://medium.com/@Kan1shka9/hacklab-vulnix-walkthrough-b2b71534c0eb
https://www.youtube.com/watch?v=5aVAjAH_iBQ
https://www.youtube.com/watch?v=p2v4FzMZhBQ
http://chousensha.github.io/blog/2017/06/20/hacklab-vulnix/
https://ohexfortyone.com/2018/03/vulnhub-hacklab-vulnix-boot2root-vm.html
http://www.cyberry.co.uk/vulnhub/hacklab-vulnix/
https://www.abatchy.com/2016/10/walkthrough-vulnix-vulnhub-vm
https://hackosis.wordpress.com/2017/06/29/vulnhub-ctf-hacklab-vulnix/
https://www.peerlyst.com/posts/how-to-break-into-hacklab-vulnix-machine-writeup-spirited-wolf
