https://0xrick.github.io/hack-the-box/bastion/
https://resources.infosecinstitute.com/hack-the-box-htb-walkthrough-bastion/#gref
https://medium.com/@kapilvermarbl/bastion-hackthebox-walkthrough-35bea64eaf56
https://www.hackingarticles.in/hack-the-box-challenge-bastion-walkthrough/
