https://raw.githubusercontent.com/texus/codingame/master/Community%20Puzzles/Gravity.c
https://raw.githubusercontent.com/pathosDev/CodinGame-Solutions/master/Puzzles/Easy/Gravity%20Tumbler/CSharp.cs
https://raw.githubusercontent.com/pathosDev/CodinGame-Solutions/master/Puzzles/Easy/Gravity%20Tumbler/Java.java
