https://raw.githubusercontent.com/pastelito02/Challenges-sol/master/Programming/Codeabbey/134/tracynguyen.cc
https://raw.githubusercontent.com/pastelito02/Challenges-sol/master/Programming/Codeabbey/134/mr.scapegrace.cs
https://raw.githubusercontent.com/pastelito02/Challenges-sol/master/Programming/Codeabbey/134/matt_matt.fs
https://raw.githubusercontent.com/pastelito02/Challenges-sol/master/Programming/Codeabbey/134/gsou859.hs
https://raw.githubusercontent.com/pastelito02/Challenges-sol/master/Programming/Codeabbey/134/Andrey_Murashov.js
https://raw.githubusercontent.com/pastelito02/Challenges-sol/master/Programming/Codeabbey/134/gerhardt_funk.lisp
https://raw.githubusercontent.com/pastelito02/Challenges-sol/master/Programming/Codeabbey/134/memstick.lua
https://raw.githubusercontent.com/pastelito02/Challenges-sol/master/Programming/Codeabbey/134/KOR_Ryat.php
https://raw.githubusercontent.com/GuillermoLopezJr/CodeAbbey/master/Abbey134/main.py
https://raw.githubusercontent.com/pastelito02/Challenges-sol/master/Programming/Codeabbey/134/BeastJLJ.rb
https://raw.githubusercontent.com/AlexMckey/CodeAbbey_Scala/master/src/FibonacciSequence.scala
https://raw.githubusercontent.com/pastelito02/Challenges-sol/master/Programming/Codeabbey/134/kennjensen.vb
https://raw.githubusercontent.com/JesseClarkND/codeabbey_in_C-NET/master/Flying%20Text%20Screensaver
