https://raw.githubusercontent.com/nayuki/Project-Euler-solutions/master/haskell/p587.hs
https://raw.githubusercontent.com/nayuki/Project-Euler-solutions/master/java/p587.java
https://raw.githubusercontent.com/nayuki/Project-Euler-solutions/master/mathematica/p587.mathematica
