https://www.youtube.com/watch?v=xx_hiC3LFKY
https://www.youtube.com/watch?v=LsXtOcWf7OE
https://www.youtube.com/watch?v=RdcjaCcihKA
https://passionforpentesting.com/2017/03/28/owasp-hackademic-challenges-project-challenge-1/
https://cyruslab.net/2012/11/05/hackademia-challenge-001/
https://www.youtube.com/watch?v=jkFZoTDSS_4https://tinyurl.com/yyxawerd
