85
-0.351469194358 -0.87169002657 -0.152818594457 -0.0126210957013 -0.655452893661
0.932197366989 0.552428768582 0.213333607846 0.746890351327 0.00862887779392
0.853845367245 0.936354458151 -0.0190740139661 0.398863652553 0.152594107798
-0.0845757116946 -0.0146920198273 -0.967946198889 -0.530429122092 -0.787929812816
0.111962687384 -0.28619727542 0.931666418348 0.652400097433 0.576088398382
-0.0939631142508 0.0821842030732 0.620350622989 0.204550965395 0.500821775589
-0.922154052722 -0.875056101585 0.0647276693769 -0.495872031196 0.0958985464827
0.75447738497 0.848082079107 -0.293565593981 0.253214288736 -0.25932167773
-0.958391948418 -0.544575209954 -0.260635627237 -0.806190913779 0.0114343691396
-0.106658698464 0.10326229413 -0.994257050468 -0.607420868207 -0.735366331057
-0.249019798416 -0.7900360658 0.402115838759 0.267404606137 0.00592947958596
-0.506692604958 -0.206086895672 0.155274542918 -0.278725189261 0.130169526121
-0.234781634925 0.367187626721 0.030765094857 -0.341851839786 0.358611680767
-0.0885282040583 -0.0520079453204 -0.842085289856 -0.489875118244 -0.572594039132
-0.0135806649927 -0.541723385815 -0.390338603354 0.0306986959979 -0.723065271677
0.581358036279 0.227192613174 -0.0629808347365 0.388824356111 -0.103637884284
0.030419695901 0.0656996149401 0.778061075523 0.40102296892 0.555750067815
0.591752515078 0.676208669246 -0.0693398692965 0.193736929271 0.269716466079
0.57614142053 0.124803962463 0.100086843954 0.616954713126 -0.520945029423
0.240792711211 0.751718943043 -0.491802387594 -0.297968836036 -0.12043237225
0.214101876921 0.646853106694 -0.653252093596 -0.350087567898 -0.341215787254
-0.495872031196 -0.963238058777 0.135546275867 -0.00299117878701 -0.261562475635
-0.297968836036 0.353940133664 -0.200987580642 -0.506692604958 0.195814789206
-0.305483745789 0.0586005810078 -0.606649606613 -0.666744875646 0.00412607774465
-0.666744875646 -0.221753091362 -0.113093693544 -0.664543645092 0.481424920779
0.471362293549 0.960164631719 -0.0601645029748 0.009624988355 0.36982787393
-0.438949125728 -0.943752666578 -0.0137150575186 -0.0135806649927 -0.472496022595
-0.0126210957013 -0.447373629678 -0.576041985213 -0.0885282040583 -0.844602929629
0.0975484475102 -0.0432748592451 0.987935173385 0.573499545617 0.767245012947
-0.649239410252 -0.246009315448 -0.0283075343647 -0.493662373877 0.0781962851711
-0.530429122092 -0.0281994048397 -0.863026686392 -0.930302912775 -0.280963906867
-0.734019663111 -0.780419476581 0.33601615909 -0.249019798416 0.361239523809
0.912120637936 0.908356714577 -0.0473862296896 0.471362293549 -0.0107267208567
0.573499545617 0.0304120987972 0.847015751683 0.957405575977 0.263561359618
-0.350087567898 0.321138384632 -0.4208921731 -0.649239410252 0.0303445512101
-0.228984510614 -0.7037034428 0.575946173271 0.325760316455 0.232719566779
-0.196694844092 -0.582147782062 0.722509391103 0.370295686452 0.444408208827
0.00748594649206 0.388157327947 0.656388684775 0.142840522093 0.889038777144
0.297258503783 0.816906486213 0.216152552044 0.00748594649206 0.733237130807
0.388824356111 0.567384672418 -0.142680829083 -0.000300113753602 0.313024603694
-0.0654676278539 0.276226726156 0.672013438406 0.0975484475102 0.998748795731
-0.806190913779 -0.930886946318 0.00876020196598 -0.351469194358 -0.228484489457
0.267404606137 -0.363245624783 0.0857852467883 0.426438075876 -0.278167276322
0.0306986959979 -0.0757525830565 -0.703775138905 -0.305483745789 -0.531617571954
0.957405575977 0.471056840224 0.365971420223 0.912120637936 -0.0870142394702
0.971472032542 0.528395669017 0.302099046331 0.853845367245 -0.0343187079939
-0.646910972543 -0.019328986255 -0.72765355517 -0.958391948418 -0.178410968137
0.746890351327 0.912647158033 -0.00132165121263 0.297258503783 0.299159604689
0.426438075876 0.183310223468 -0.247239196154 0.164926338653 -0.157217461187
-0.47801933146 -0.0246162796235 -0.0858969980304 -0.561942406726 0.554281060932
-0.278725189261 -0.502685510605 0.180567895329 0.10038537094 -0.325795201323
-0.930302912775 -0.43023574592 -0.387907380412 -0.922154052722 0.11587980713
0.398863652553 0.914148122068 0.0850381526679 0.0146296390881 0.568142965076
0.370295686452 -0.298758141295 0.522503765406 0.709223646499 0.0503554104905
-0.00299117878701 -0.601003426192 -0.17984290603 0.158444915812 -0.564662695214
-0.341851839786 -0.159489428284 0.337521346485 -0.049040865443 0.1841701061
0.113698208402 -0.17607453541 -0.705108843313 -0.106658698464 -0.997298766226
0.164926338653 0.432554537893 -0.218338894875 -0.200629130798 0.332735093471
0.709223646499 0.261940945373 0.117295326132 0.591752515078 -0.0543696181676
-0.607420868207 -0.0295297996861 -0.818925369252 -0.971168506409 -0.240582672514
0.142840522093 0.0347487325987 0.894866848861 0.570858555571 0.581624702705
0.0146296390881 0.49874577637 0.486959924087 0.030419695901 0.788978345945
-0.113667874142 0.22568247007 -0.965880581887 -0.646910972543 -0.639269339069
0.570858555571 0.0822493310024 0.674848309278 0.880896245109 0.0309045939538
0.10038537094 -0.349934283411 -0.217003215637 0.212631189153 -0.819695250505
0.009624988355 0.575897367763 0.28749394961 -0.0939631142508 0.647904922927
0.204550965395 -0.110317836299 0.567869069474 0.57614142053 -0.0171724762394
-0.664543645092 -0.61401471912 0.41138028634 -0.228984510614 0.552052914311
-0.000300113753602 0.455943697429 0.208858411469 -0.163020747815 0.812292913218
0.63192935475 0.0257460183239 0.778997791725 0.971472032542 0.212129496459
-0.971168506409 -0.503855952947 -0.337309745272 -0.889284285127 0.0596585286533
-0.561942406726 -0.414275703133 0.468793583048 -0.196694844092 0.716183684039
0.40102296892 -0.00879315492685 0.637851242746 0.748511634466 0.00858058586426
0.703824052781 0.702025380002 -0.37555887637 0.240792711211 -0.459299456248
0.880896245109 0.480273483533 0.139846343428 0.75447738497 -0.334207016258
0.616954713126 0.517640606583 -0.442701576435 0.214101876921 -0.638114556291
0.193736929271 0.648892019142 0.17828032933 -0.0654676278539 0.762886963244
-0.099611636949 0.163152271798 -0.52230443197 -0.47801933146 0.0300253937088
0.0190823272498 -0.371287937224 -0.628688323596 -0.0845757116946 -0.986420903601
0.212631189153 0.0339235709195 -0.739695589524 -0.113667874142 -0.953322029643
0.111979181844 -0.164378660828 0.986857469035 0.63192935475 0.692562205993
-0.820246688365 -0.40068431755 -0.133458856684 -0.734019663111 0.387156736004
0.748511634466 0.314129319694 0.124385953754 0.703824052781 -0.436536572339
-0.493662373877 -0.625563013146 0.105383571749 -0.0982012084887 -0.294327888299
-0.889284285127 -0.928848619014 0.0320469993349 -0.438949125728 -0.0724927532292
