http://overflowsecurity.com/hacklab-vulnvoip/
https://chousensha.github.io/blog/2014/10/07/pentest-lab-vulnvoip/
http://devloop.users.sourceforge.net/index.php?article110/solution-du-ctf-hacklab-vulnvoip
http://www.rebootuser.com/?p=1117
https://www.youtube.com/watch?v=3bR5VwupmmE
https://www.scoop.it/t/d-n3n/p/4033934981/2014/12/20/hacklab-vulnvoip-harder-way-in
https://video.hacking.reviews/2018/01/hacklab-vulnvoip-12-sipacmx-litefile.html
https://www.r00tpgp.com/2017/06/vulnvoip-walkthru.html
