https://raw.githubusercontent.com/feix/ctf-writeup/master/canyouhackit/mobile/solution1
http://deurus.info/2014/08/canyouhack-it-mobile1-challenge-simple-comparison-english/
https://sithlab.tistory.com/1451
https://raw.githubusercontent.com/pastelito02/Challenges-sol/master/canyouhackit/Mob/solution1.lst
