https://appspider.help.rapid7.com/docs/conducting-a-basic-test-manually-against-hackazon
https://github.com/rapid7/hackazon/blob/master/VULNERABILITIES.md#xss
https://www.imuo.com/a/b38bed3d14dc12471653709e896a07f3633443feb0410e79a7383ea3c57ba5aa
https://www.youtube.com/watch?v=cUdpWTx8o4I
https://www.youtube.com/watch?v=KVooQkQL8jw
https://blog.securityevaluators.com/hacking-hackazon-2bda9830ccf0
