https://security04.tistory.com/199
https://blog.csdn.net/Ni9htMar3/article/details/60138370
http://ctf.yeuchimse.com/wargame-flee-button/
https://blog.csdn.net/qq_35078631/article/details/77619302
https://blog.limelee.xyz/entry/flee-button
