https://github.com/luceatnobis/challenges/tree/master/net-force.nl/guardian
https://nopsrus.blogspot.com.co/2012/06/this-is-link-to-original-challenge.html
https://raw.githubusercontent.com/djcomidi/netforce/master/javascript/level106/solution.py
