https://raw.githubusercontent.com/vmauricio93/Challenges-Solutions/master/code/codewars/sum-of-digits/qwertyn.c
https://raw.githubusercontent.com/vmauricio93/Challenges-Solutions/master/code/codewars/sum-of-digits/andrewbeach.clj
https://raw.githubusercontent.com/vmauricio93/Challenges-Solutions/master/code/codewars/sum-of-digits/user578387.coffee
https://raw.githubusercontent.com/vmauricio93/Challenges-Solutions/master/code/codewars/sum-of-digits/__Anonymous__.cpp
https://raw.githubusercontent.com/vmauricio93/Challenges-Solutions/master/code/codewars/sum-of-digits/timp.cs
https://raw.githubusercontent.com/handracs2007/codewars_digital_root/master/main/main.go
https://raw.githubusercontent.com/vmauricio93/Challenges-Solutions/master/code/codewars/sum-of-digits/ConstantineGochev.js
https://raw.githubusercontent.com/vmauricio93/Challenges-Solutions/master/code/codewars/sum-of-digits/user578387.py
https://raw.githubusercontent.com/vmauricio93/Challenges-Solutions/master/code/codewars/sum-of-digits/psmilliorn.r
https://raw.githubusercontent.com/vmauricio93/Challenges-Solutions/master/code/codewars/sum-of-digits/seniorburito.rb
https://raw.githubusercontent.com/vmauricio93/Challenges-Solutions/master/code/codewars/sum-of-digits/sisaberi.scala
