https://raw.githubusercontent.com/derekhh/HackerRank/master/Algorithms/Sorting/runningtime.cpp
https://raw.githubusercontent.com/charles-wangkai/hackerrank/master/runningtime/Solution.java
https://raw.githubusercontent.com/marioluan/hacker-rank-solved-problems/master/algorithms/sorting/easy/runningtime.js
https://raw.githubusercontent.com/witekbobrowski/HackerRank/master/Algorithms/Sorting/running-time-of-algorithms.swift
