https://raw.githubusercontent.com/lllllll-llll-llllll/codeabbey_autoit/master/16.au3
https://raw.githubusercontent.com/phuclevinh2000/CodeAbbey/master/Average%20of%20an%20array.c
https://raw.githubusercontent.com/pastelito02/Challenges-sol/master/Programming/Codeabbey/016/bryantanyh.cc
https://raw.githubusercontent.com/DionysiosB/CodeAbbey/master/AverageOfAnArray.cpp
https://raw.githubusercontent.com/Tempurturtul/CodeAbbey/master/C%23/AverageOfArray.cs
https://raw.githubusercontent.com/pastelito02/Challenges-sol/master/Programming/Codeabbey/016/Ratzenfutz.d
https://raw.githubusercontent.com/SebastianHerrera/DartProblems/master/average_of_an_array.dart
https://raw.githubusercontent.com/pastelito02/Challenges-sol/master/Programming/Codeabbey/016/alexander_v.fs
https://raw.githubusercontent.com/vinitkantrod/go-codeabbey/master/16_average_of_array/main.go
https://raw.githubusercontent.com/meganroche/CodeAbbeySolutions/master/Java/AvgArray.java
https://raw.githubusercontent.com/pastelito02/Challenges-sol/master/Programming/Codeabbey/016/hawkdove.jl
https://raw.githubusercontent.com/pastelito02/Challenges-sol/master/Programming/Codeabbey/016/olavituo.js
https://raw.githubusercontent.com/chriswood/codeabbey/master/ca14.lisp
https://raw.githubusercontent.com/pastelito02/Challenges-sol/master/Programming/Codeabbey/016/MrSossaa.lua
https://raw.githubusercontent.com/pastelito02/Challenges-sol/master/Programming/Codeabbey/016/stefan.schmiedl.ml
https://raw.githubusercontent.com/mpeshehonov/Codeabbey/master/practice/%2316/index.php
https://raw.githubusercontent.com/pastelito02/Challenges-sol/master/Programming/Codeabbey/016/funboixer.pl
https://raw.githubusercontent.com/svaughnlewis/code-abbey-solutions/master/codeAbbey016_array-checksum.py
https://raw.githubusercontent.com/marclerodrigues/ruby_exercises/master/average_of_array.rb
https://raw.githubusercontent.com/mmcdon20/code_abbey/master/src/main/scala/Abbey016.scala
https://raw.githubusercontent.com/Thomas-George-T/HackerRank-The-Linux-Shell-Challenges-Solutions/master/Challenges/Bash/Compute%20the%20average.sh
https://raw.githubusercontent.com/pastelito02/Challenges-sol/master/Programming/Codeabbey/016/cire.swift
https://raw.githubusercontent.com/pastelito02/Challenges-sol/master/Programming/Codeabbey/016/sromander1.vb
https://raw.githubusercontent.com/JesseClarkND/codeabbey_in_C-NET/master/Average%20of%20an%20array
