https://raw.githubusercontent.com/nayuki/Project-Euler-solutions/master/haskell/p116.hs
https://raw.githubusercontent.com/nayuki/Project-Euler-solutions/master/java/p116.java
https://raw.githubusercontent.com/nayuki/Project-Euler-solutions/master/python/p116.py
https://raw.githubusercontent.com/nayuki/Project-Euler-solutions/master/mathematica/p116.mathematica
