https://raw.githubusercontent.com/Gamer1092/Coderbyte/Easy/Palindrome.cpp
https://raw.githubusercontent.com/Nigelmnz/CoderbyteSolutions/master/15-Palindrome/15.hs
https://raw.githubusercontent.com/TheAaronCovington/Java-Coderbyte-Solutions/master/15Palindrome.java
https://raw.githubusercontent.com/ZLester/Coderbyte-Solutions/master/Easy/15%20-%20Palindrome.js
https://raw.githubusercontent.com/alecashford/Coderbyte-Solutions-Python/master/palindrome.py
https://raw.githubusercontent.com/juyongsim/coderbyte/master/Palindrome.rb
