https://raw.githubusercontent.com/natansh/spoj/master/UJ/source.c
https://raw.githubusercontent.com/cacophonix/SPOJ/master/UJ.cpp
https://raw.githubusercontent.com/t3nsor/SPOJ/master/uj.py
https://raw.githubusercontent.com/natansh/spoj/master/UJ/source.rb
