https://github.com/hbayramov/bWAPP-Solutions#sql-injection-selectget
https://karantank.wordpress.com/2015/09/17/bwapp-sql-injection-getselect/
https://inforensicsuex.wordpress.com/2014/05/13/sql-injection-en-bwapp-segundo-ejemplo/
https://www.youtube.com/watch?v=1XdJtXSwKPE
https://www.youtube.com/watch?v=UDgpI5roWTc
https://github.com/skiptomyliu/solutions-bwapp#sql-injection-getselect
https://www.youtube.com/watch?v=rEXoDQsrJ9A
https://youtu.be/oQOpyA72OT0?t=7m12s
http://www.h3399.cn/201707/111479.html
https://teckk2.github.io/web-pentesting/2018/02/07/SQL-Injection(Select-GET).html
https://ctf-time.com/bwapp-walkthrough-sql-injection-cross-site-scripting/
https://youtu.be/nhKetwqAddw?t=4m56s
https://studysecurity-world.tistory.com/63?category=806005
https://net123.tistory.com/452?category=695510
