https://purpleskypeter.blogspot.com/2019/07/owasp-security-shepherd-project-sql4.html
https://blog.csdn.net/BenjaminfSociety/article/details/82732948
https://woj.app/2354.html
http://www.programmersought.com/article/81491614378/
