https://bbs.ichunqiu.com/forum.php?mod=viewthread&tid=45711&highlight=btslab%E5%85%A8%E6%94%BB%E7%95%A5
https://blog.csdn.net/qq_34444097/article/details/83663638
https://www.slideshare.net/ATASlides/atagtr2018-presentation-security-testing-for-restful-apis-by-anuradha-raman
