https://raw.githubusercontent.com/BlakeBrown/HackerRank-Solutions/master/Algorithms/Implementation/Sherlock%20and%20the%20Beast.cpp
https://raw.githubusercontent.com/RyanFehr/HackerRank/master/Algorithms/Greedy/Sherlock%20and%20The%20Beast/Solution.java
https://raw.githubusercontent.com/yznpku/HackerRank/master/solution/practice/algorithms/greedy/sherlock-and-the-beast/solution.py
https://raw.githubusercontent.com/raghav97/Hackerrank-Solutions/master/sherlock_and_the_beast.rb
