https://github.com/NotSurprised/RingZer0-CTF-Writeup/blob/master/Forensics/02.%20I%20made%20a%20dd%20of%20Agent%20Smith%20usb%20key/I%20made%20a%20dd%20of%20Agent%20Smith%20usb%20key.md
https://github.com/rght/RingZer0-CTF-WriteUp/tree/master/forensics/agentsmithusb
https://raw.githubusercontent.com/rght/RingZer0-CTF-WriteUp/master/forensics/agentsmithusb/writeup.md
