https://raw.githubusercontent.com/YetAnotherMinion/YAMScratch/master/CodeAbbey/c-sol/src/97.c
https://raw.githubusercontent.com/pastelito02/Challenges-sol/master/Programming/Codeabbey/097/damian_zb.java
https://raw.githubusercontent.com/pastelito02/Challenges-sol/master/Programming/Codeabbey/097/rfroc_js.js
https://raw.githubusercontent.com/pastelito02/Challenges-sol/master/Programming/Codeabbey/097/ciberstein.php
https://raw.githubusercontent.com/pastelito02/Challenges-sol/master/Programming/Codeabbey/097/frosty.py
https://raw.githubusercontent.com/JesseClarkND/codeabbey_in_C-NET/master/Girls%20and%20Pigs
