https://raw.githubusercontent.com/ilchen/cryptopals/master/src/main/java/com/cryptopals/Set6.java
https://raw.githubusercontent.com/lt/php-cryptopals/master/Cryptopals/Set6/Challenge45/Solution45.php
https://raw.githubusercontent.com/akalin/cryptopals-python3/master/challenge45.py
https://raw.githubusercontent.com/technion/matasano_challenge/master/set6/chal45/chal45.rb
