https://raw.githubusercontent.com/nayuki/Project-Euler-solutions/master/haskell/p060.hs
https://raw.githubusercontent.com/nayuki/Project-Euler-solutions/master/java/p060.java
https://raw.githubusercontent.com/sile/euler.rs/master/euler_02/src/problem060.rs
