https://raw.githubusercontent.com/kamyu104/LeetCode-Solutions/master/C%2B%2B/gray-code.cpp
https://raw.githubusercontent.com/mqwu/LeetCode/master/Python/gray-code.py
https://raw.githubusercontent.com/aylei/leetcode-rust/master/src/solution/s0089_gray_code.rs
