https://www.hackingarticles.in/ua-literally-vulnerable-vulnhub-walkthrough/
https://medium.com/@anushibin007/ua-literally-vulnerable-vulnhub-walkthrough-edb5271f3c74
https://medium.com/@vj0shii/vulnhub-ua-literally-vulnerable-walkthrough-e95e43c2f9a3
https://www.maritimecybersecurity.center/ua-literally-vulnerable-vulnhub-walkthrough/
https://mattgeraldcomputingjourney.wordpress.com/2019/12/10/literallyvulnerable-vm-walkthrough/
https://blog.csdn.net/fastergohome/article/details/103484294
