https://raw.githubusercontent.com/nayuki/Project-Euler-solutions/master/haskell/p129.hs
https://raw.githubusercontent.com/nayuki/Project-Euler-solutions/master/java/p129.java
https://raw.githubusercontent.com/nayuki/Project-Euler-solutions/master/python/p129.py
https://raw.githubusercontent.com/nayuki/Project-Euler-solutions/master/mathematica/p129.mathematica
