https://raw.githubusercontent.com/p4-team/ctf/master/2016-03-19-bctf/misc_200_hsab/README.md
https://github.com/DMArens/CTF-Writeups/tree/master/2016/BCTF/Misc200
https://raw.githubusercontent.com/QuokkaLight/write-ups/master/bctf-2016/hsab.md
https://ctf.rip/bctf-2016-hsab-misc-category-challenge/
