https://raw.githubusercontent.com/Th3Wicked/RootMe-Challenges/master/Pixel%20Madness/Pixel-Madness.py
https://johannesbader.ch/2015/05/crackmes-de-matteos-keygenme/
https://johannesbader.ch/2015/04/crackmes-de-simple-res-crackme-v03/
https://johannesbader.ch/2015/04/crackmes-de-greedy-flys-crackme-v20/
https://johannesbader.ch/2015/04/crackmes-de-souhails-climb/
https://johannesbader.ch/2014/12/crackmes-de-josamonts-j666/
https://johannesbader.ch/2014/12/crackmes-de-sx0rs-crackme1-by-sx0r/
https://johannesbader.ch/2014/10/crackmes-de-greedy_flys-crackme-v-1-3/
https://johannesbader.ch/2014/08/crackmes-de-twistedtuxs-first-keygenme/
https://thinbashane.wordpress.com/2015/10/22/root-me-cracking-elf-0-protections/
https://codeasy.nl/hacking/root-me-antwoorden/elf-0-protection/
https://raw.githubusercontent.com/s1syphu5/RootMe-Challenges/master/Cracking/ELF%20ARM%20-%20Basic%20Crackme/README.md
https://raw.githubusercontent.com/JohndoeChivas/RootMeChallenges/master/Web-Serveur/%20File%20upload%20-%20Double%20extensions
https://raw.githubusercontent.com/JohndoeChivas/RootMeChallenges/master/Web-Serveur/%20Fichier%20de%20sauvegarde
https://raw.githubusercontent.com/JohndoeChivas/RootMeChallenges/master/Web-Serveur/%20HTTP%20-%20Directory%20indexing
https://raw.githubusercontent.com/JohndoeChivas/RootMeChallenges/master/Web-Serveur/%20HTTP%20-%20Headers
https://raw.githubusercontent.com/JohndoeChivas/RootMeChallenges/master/Web-Serveur/%20HTTP%20-%20POST
https://raw.githubusercontent.com/JohndoeChivas/RootMeChallenges/master/Web-Serveur/%20HTTP%20-%20Redirection%20invalide
https://raw.githubusercontent.com/JohndoeChivas/RootMeChallenges/master/Web-Serveur/%20HTTP%20-%20Verb%20tampering
https://raw.githubusercontent.com/JohndoeChivas/RootMeChallenges/master/Web-Serveur/%20Install%20files
https://raw.githubusercontent.com/JohndoeChivas/RootMeChallenges/master/Web-Serveur/%20Mot%20de%20passe%20faible
https://mandu-mandu.tistory.com/234
