https://raw.githubusercontent.com/zimpha/competitive-programming/master/project-euler/volume01/21.cc
https://raw.githubusercontent.com/mishadoff/project-euler/master/src/project_euler/problem021.clj
https://raw.githubusercontent.com/wce-codepals/hacktoberfest-projecteuler/master/solutions/problem-21/solution.cpp
https://raw.githubusercontent.com/DestructHub/ProjectEuler/master/Problem021/Elixir/solution_1.exs
https://raw.githubusercontent.com/kdungs/euler/master/021/euler_21.hs
https://raw.githubusercontent.com/nayuki/Project-Euler-solutions/master/java/p021.java
https://raw.githubusercontent.com/nayuki/Project-Euler-solutions/master/python/p021.py
https://raw.githubusercontent.com/zsiciarz/euler.rs/master/src/solutions/problem21.rs
https://raw.githubusercontent.com/nayuki/Project-Euler-solutions/master/mathematica/p021.mathematica
