https://raw.githubusercontent.com/derekhh/HackerRank/master/Algorithms/Sorting/insertionsort1.cpp
https://raw.githubusercontent.com/mikkysati/Hackerrank-Solution-in-C/master/Insertion-Sort---Part-1/Solution.cs
https://raw.githubusercontent.com/charles-wangkai/hackerrank/master/insertionsort1/Solution.java
https://raw.githubusercontent.com/marioluan/hacker-rank-solved-problems/master/algorithms/sorting/easy/insertion-sort-part-1.js
https://raw.githubusercontent.com/danhenriquesc/hackerrank/master/algorithms/sorting/insertion_sort_part_1.php
https://raw.githubusercontent.com/ehouarn-perret/EhouarnPerret.Python.HackerRank/master/1%20-%20Algorithms/3%20-%20Sorting/1%20-%20Insertion%20Sort%20-%20Part%201.py
https://raw.githubusercontent.com/witekbobrowski/HackerRank/master/Algorithms/Sorting/insertion-sort-part-1.swift
