https://www.hackingarticles.in/connect-the-dots1-vulnhub-walkthough/
https://medium.com/@barrymalone/vulnhub-connect-the-dots-walkthrough-ba4566674ba
https://lifesfun101.github.io/2019/10/26/Connect-The-Dots-walkthrough.html
https://mkhfaga.wordpress.com/2020/01/24/vulnhub-connect-the-dots-walkthrough/
