https://raw.githubusercontent.com/rdtsc/codeeval-solutions/master/src/easy/morse-code/solutions/c/solution.c
https://raw.githubusercontent.com/rdtsc/codeeval-solutions/master/src/easy/morse-code/solutions/c%2B%2B/solution.cpp
https://raw.githubusercontent.com/AvetisG/CodeEval/master/01%20-%20Easy/C%23/MorseCode/MorseCodeSolution.cs
https://gitlab.com/agaskell/codeeval/-/raw/master/116/116.go
https://raw.githubusercontent.com/pascal-bourut/codeeval-challenges/master/easy/116%20-%20Morse%20Code/116.js
https://raw.githubusercontent.com/leaen/Codeeval-solutions/master/morse-code.lua
https://raw.githubusercontent.com/pascal-bourut/codeeval-challenges/master/easy/116%20-%20Morse%20Code/116.php
https://raw.githubusercontent.com/lucasrangit/CodeEval/master/morse_code.py
https://gitlab.com/agaskell/codeeval/-/raw/master/116/116.rb
