https://raw.githubusercontent.com/kdungs/euler/master/019/euler_19.c
https://raw.githubusercontent.com/zimpha/competitive-programming/master/project-euler/volume01/19.cc
https://raw.githubusercontent.com/mishadoff/project-euler/master/src/project_euler/problem019.clj
https://raw.githubusercontent.com/DestructHub/ProjectEuler/master/Problem019/Elixir/solution_1.exs
https://raw.githubusercontent.com/nayuki/Project-Euler-solutions/master/haskell/p019.hs
https://raw.githubusercontent.com/nayuki/Project-Euler-solutions/master/java/p019.java
https://raw.githubusercontent.com/DestructHub/ProjectEuler/master/Problem019/Python/solution_1.py
https://raw.githubusercontent.com/zsiciarz/euler.rs/master/src/solutions/problem19.rs
https://raw.githubusercontent.com/nayuki/Project-Euler-solutions/master/mathematica/p019.mathematica
