https://raw.githubusercontent.com/Gamer1092/Coderbyte-Medium/Medium/Fibonacci%20Checker.cpp
https://raw.githubusercontent.com/ZLester/Coderbyte-Solutions/master/Medium/26%20-%20Fibonacci%20Checker.js
https://raw.githubusercontent.com/tomyancey/coderbyte_solutions/master/fibonacci_checker.rb
