https://raw.githubusercontent.com/Samleo8/CoderByte/master/Easy/FirstFactorial.c
https://raw.githubusercontent.com/Nigelmnz/CoderbyteSolutions/master/02-FirstFactorial/2.hs
https://raw.githubusercontent.com/ZLester/Coderbyte-Solutions/master/Easy/02%20-%20First%20Factorial.js
https://raw.githubusercontent.com/brbcoding/Coderbyte/master/Easy/FirstFactorial.php
https://raw.githubusercontent.com/juyongsim/coderbyte/master/FirstFactorial.rb
