https://ndb796.tistory.com/335
https://studyit312.tistory.com/63?category=317506
https://btr95.tistory.com/entry/WarGame-md5compare
https://duni0107-day.tistory.com/14
https://nullguberry.tistory.com/154
https://kkamikoon.tistory.com/208
https://tistory.jeongjy.kr/69
https://m.blog.naver.com/ppkkss111/221802438412
https://blog.ch4n3.me/389
https://mitny.github.io/articles/2017-08/Wargamekr-md5-compare
https://btr95.tistory.com/m/entry/WarGame-md5compare?category=757802
https://rootjonghyun.tistory.com/m/66?category=701386
https://ntart23.tistory.com/17
https://posix.tistory.com/10
https://mitny.tistory.com/164
https://binzip2.tistory.com/47
https://jeonyoungsin.tistory.com/27
https://kangsecu.tistory.com/62
https://sangblog.zz.am/entry/wargamekr-md5compare%EB%AC%B8%EC%A0%9C
https://5ersec.blogspot.com/2017/10/wargamekr-500p-md5compare.html
