https://raw.githubusercontent.com/ozan/solutions/master/hackerrank/diagonal-difference.c
https://raw.githubusercontent.com/MaskRay/HackerRank/master/diagonal-difference.clj
https://raw.githubusercontent.com/danhenriquesc/hackerrank/master/algorithms/warmup/diagonal_difference.cpp
https://raw.githubusercontent.com/RyanFehr/HackerRank/master/Algorithms/Warmup/Diagonal%20Difference/Solution.cs
https://gist.githubusercontent.com/ranapu/f9a34a2d0a129259eeeb8433ef363d9e/raw/92c8773cef9e82e3e3b954e81f1154aa1e7480b2/DiagonalDifferenceInGo.go
https://raw.githubusercontent.com/havelessbemore/hackerrank/master/algorithms/warmup/diagonal-difference.java
https://raw.githubusercontent.com/matinfazli/HackerRank/master/algorithms/01-warmup/04-diagonal-difference/solution.js
https://raw.githubusercontent.com/rrylee/HackerRank-Solution/master/Algorithm/Warmup/4-diagonal-difference.php
https://raw.githubusercontent.com/BillSkiCO/HackerRank-Challenges/master/Diagonal%20Difference.py
https://raw.githubusercontent.com/marioluan/hacker-rank-solved-problems/master/algorithms/warmup/diagonal-difference.rb
https://raw.githubusercontent.com/mminer/hackerrank/master/diagonal-difference.swift
