https://medium.com/@akinarisekigawa/writeups-ctf-riceteacatpanda-2020-90c35fe38e9#1bca
https://mandu-mandu.tistory.com/380
https://raw.githubusercontent.com/deepakgouda/CTF-Writeups/master/RiceTeaCatPanda/Solution.md
https://www.tdpain.net/progpilot/rtcp2020/catchat/
https://raw.githubusercontent.com/OmerYe/ctf-writeups/master/2019/36c3/compilerbot-solve.py
