https://youtu.be/mjeBPCGA7ko
https://youtu.be/e0M-qJYhCnk
https://www.irongeek.com/i.php?page=videos/web-application-pen-testing-tutorials-with-mutillidae#determine-http-methods-using-netcat
https://youtu.be/9EaNr_8D65A
