https://raw.githubusercontent.com/MaskRay/HackerRank/master/sherlock-and-cost.cc
https://raw.githubusercontent.com/derekhh/HackerRank/master/sherlock-and-cost.cpp
https://raw.githubusercontent.com/HamidTheGeek/HackerRankSolutions/master/Solutions/SherlockAndCost.cs
