https://infosecuritygeek.com/root-me-command-control/
https://cysecguide.blogspot.com/2017/12/root-me-write-up-command-control-level-5.html
https://hacked0x90.wordpress.com/2015/01/31/root-mecommand-control-level-5/
https://underc0de.org/foro/soluciones-de-wargames/(root-me)-command-control-level-5/
https://or10nlabs.tech/root-me-command-control/
