https://raw.githubusercontent.com/Gamer1092/Coderbyte-Medium/Medium/Array%20Addition.cpp
https://raw.githubusercontent.com/ZLester/Coderbyte-Solutions/master/Medium/08%20-%20Array%20Addition.js
https://raw.githubusercontent.com/bolducp/coderbyte/master/medium/08_array_addition.py
