https://croas.tistory.com/126
https://deurus.info/2015/12/reto-forense-find-the-cat-de-root-me-org/
https://raw.githubusercontent.com/RomaniukVadim/wargaming-challenges/master/RootMe/forensic/find_the_cat.txt
