https://computersecuritystudent.com/SECURITY_TOOLS/DVWA/DVWAv107/lesson16/index.html
https://github.com/sheimo/DVWA-Answers#xss-reflected-low
https://www.webguvenligi.org/dergi/DamnVulnerableWebApp-Aralik2009-RyanDewhurst.pdf
https://www.homelab.it/index.php/2016/01/02/dvwa-xss-reflected-soluzione-completa/index.html
https://redinfocol.org/dvwa-conociendo-y-explotando-diferentes-vulnerabilidades-level-low/
https://www.youtube.com/watch?v=WoXf6CSOvyQ&t=0s&list=PLYG-FZ4DA0VpYLEoDWou8pu3xEyI5N-N2&index=6
http://www.hackingarticles.in/xss-exploitation-dvwa-bypass-security/
https://www.information-security.fr/en/dvwa-solutions-protections-file-inclusion-xss/
https://www.youtube.com/watch?v=sNya02e5Vp0&list=PLZUQcQP4Xtlp64Q6tzw8GdLsOweBsKDSs&index=9
http://www.tapost.org/wp-content/uploads/2016/10/3_s2_t3_1_Aigars-Naglis_Alise-Silde-LV.pdf
https://www.youtube.com/watch?v=AGJQfWSgC9U
http://www.hackingmonks.net/2017/01/cross-site-scripting-2-stored.html
https://www.youtube.com/watch?v=jeN93zDOtK0
https://www.youtube.com/watch?v=6-WM7K1Q_bA
https://www.information-security.fr/dvwa-solutions-protections-file-inclusion-xss/
https://www.youtube.com/watch?v=-H1qjiwQldw
https://www.youtube.com/watch?v=H4AXL4K_hw8
https://www.youtube.com/watch?v=3tRSJwuDBKg
https://www.youtube.com/watch?v=Zkb1fZjNRLc
https://www.youtube.com/watch?v=K59SwRGH61U
https://www.youtube.com/watch?v=ivvTrTie16I
https://www.youtube.com/watch?v=YrBqP5HVAHM
https://www.youtube.com/watch?v=Uvq1IP2I-mQ
https://www.youtube.com/watch?v=bC10UV8cWUw
https://www.youtube.com/watch?v=J7fVOyhIX1c
https://drive.google.com/open?id=1AsRiSlWpCSGgRMJL7iCubGa-xs4KohDh
https://drive.google.com/open?id=1D_T0VgIxwAvavIBsSRD8rOqrznwZze7H
https://drive.google.com/open?id=1_Yded3yNk9Qr0Bv3LZ2eBWim_uGALajp
https://raw.githubusercontent.com/sheimo/DVWA-Answers/master/README.md
https://raw.githubusercontent.com/keewenaw/dvwa-guide-2019/master/low/Challenge%2011%3A%20XSS%20(Reflected).md
https://raw.githubusercontent.com/keewenaw/dvwa-guide-2019/master/medium/Challenge%2010%3A%20XSS%20(DOM).md
https://lepouvoirclapratique.com/blog/wp-content/uploads/2018/01/UE_Cybersecurite-TP_DVWA_v0.6.pdf#22
