https://raw.githubusercontent.com/rdtsc/codeeval-solutions/master/src/hard/string-list/solutions/c/solution.c
https://raw.githubusercontent.com/rdtsc/codeeval-solutions/master/src/hard/string-list/solutions/c%2B%2B/solution.cpp
https://gist.githubusercontent.com/yuheiomori/08904197f7543b7ecaca/raw/193b0195b2dbd6b4734f03a50f6d49021fda4510/main.go
https://raw.githubusercontent.com/pascal-bourut/codeeval-challenges/master/hard/38%20-%20String%20list/main.js
https://raw.githubusercontent.com/pascal-bourut/codeeval-challenges/master/hard/38%20-%20String%20list/main.php
https://raw.githubusercontent.com/mpillar/codeeval/master/2-hard/string-list/main.py
https://gitlab.com/agaskell/codeeval/-/raw/master/38/38.rb
