https://www.youtube.com/watch?v=mKUM6sy-TIQ
https://alexandervoidstar.wordpress.com/2015/08/08/hackthis-basic-level-5/
https://www.youtube.com/watch?v=-j97j4n0krg
https://www.youtube.com/watch?v=vrIyJ9OoHbA
https://www.youtube.com/watch?v=6CZBdPD4Igo
https://medium.com/@thereallulz/write-up-hackthis-main-basic-all-levels-by-thereallulz-4c5dac3b0545
https://www.youtube.com/watch?v=m7zHMV_vD-I
https://secfiddle.blogspot.com/2017/12/hackthis-intermediatelevel-5.html
