https://computersecuritystudent.com/SECURITY_TOOLS/MUTILLIDAE/MUTILLIDAE_2511/lesson13/index.html
https://youtu.be/dCwmANVf66I
https://youtu.be/YCfInEFWbVA
https://youtu.be/sTTdFujJIAA
https://youtu.be/la5hTlSDKWg
https://www.irongeek.com/i.php?page=videos/web-application-pen-testing-tutorials-with-mutillidae#determine-http-methods-using-netcat
http://khongcotennhan.blogspot.com/2013/11/bai-huong-dan-mutillidae-lesson-13.html
https://www.youtube.com/watch?v=PBG3ILCVous
http://mislusnys.github.io/post/2015-02-03-owasp-top-10-in-mutillidae/
