https://raw.githubusercontent.com/Cheshulko/Algorithms/master/Leetcode/3Sum.cpp
https://raw.githubusercontent.com/Rikin04/leetcode/master/0015.3sum/3sum.java
https://raw.githubusercontent.com/aylei/leetcode-rust/master/src/solution/s0015_3sum.rs
