https://raw.githubusercontent.com/pastelito02/Challenges-sol/master/Programming/codewars/first-non-consecutive-number/Arzeg.c
https://raw.githubusercontent.com/pastelito02/Challenges-sol/master/Programming/codewars/first-non-consecutive-number/noriyotcp.cr
https://raw.githubusercontent.com/pastelito02/Challenges-sol/master/Programming/codewars/first-non-consecutive-number/Anahis-ers.cs
https://raw.githubusercontent.com/pastelito02/Challenges-sol/master/Programming/codewars/first-non-consecutive-number/Taehyung93.dart
https://raw.githubusercontent.com/pastelito02/Challenges-sol/master/Programming/codewars/first-non-consecutive-number/hiljusti.hs
https://raw.githubusercontent.com/handracs2007/codewars_first_non_consecutive_numbers_Java/master/src/FirstNonConsecutive.java
https://raw.githubusercontent.com/pastelito02/Challenges-sol/master/Programming/codewars/first-non-consecutive-number/illusory_monad.jl
https://raw.githubusercontent.com/pastelito02/Challenges-sol/master/Programming/codewars/first-non-consecutive-number/ooflorent.js
https://raw.githubusercontent.com/pastelito02/Challenges-sol/master/Programming/codewars/first-non-consecutive-number/alaiz.hashim.py
