https://computersecuritystudent.com/SECURITY_TOOLS/DVWA/DVWAv107/lesson16/index.html
https://code610.blogspot.com/2019/10/testing-dvna.html
https://github.com/appsecco/dvna/blob/master/docs/solution/a7-xss.md
https://blog.appsecco.com/damn-vulnerable-nodejs-application-dvna-by-appsecco-7d782d36dc1e
https://appsecco.com/books/owasp-2017-dvna-attacks/reflected-xss.html
https://www.cnblogs.com/hack404/p/10386938.html
https://zhuanlan.zhihu.com/p/105003724
https://blog.csdn.net/weixin_30781775/article/details/97314487
