https://raw.githubusercontent.com/guyinatuxedo/ctf/master/plaid19/re/plaid_party_planning_III/readme.md
https://raw.githubusercontent.com/EmpireCTF/empirectf/master/writeups/2019-04-12-PlaidCTF/README.md
https://raw.githubusercontent.com/hscorpion/writeups/master/plaid2019/README.md
https://balsn.tw/ctf_writeup/20190413-plaidctf/
