https://www.aldeid.com/wiki/WackoPicko/Reflected-XSS
https://www.youtube.com/watch?v=8euyZGBL3K0
https://www.youtube.com/watch?v=cEqhlaCpzYA
https://www.youtube.com/watch?v=iVcOcU7ghhc
https://www.youtube.com/watch?v=bBgdHS7i-dc
https://www.youtube.com/watch?v=lSNYr6vfStk
https://www.youtube.com/watch?v=74IdGmx5oQ0
http://sefcom.asu.edu/publications/black-box-scanners-dimva2010.pdf
http://bastionado.blogspot.com/2013/04/reto-web-wackopicko-iii.html
https://jogacrack.wordpress.com/2013/07/10/wackopicko-vulnerabilidades-web/
