https://www.youtube.com/watch?v=GVlmSeT8QwA
https://medium.com/@mazin.ahmed/bypassing-csp-by-abusing-jsonp-endpoints-47cf453624d5
https://zhzhdoai.github.io/2018/12/29/DVWA-CSP-Bypass/
http://halazi.xin/2019/01/09/DVWA-CSP-BYPASS/
