https://blog.zairo.kr/entry/Wargamekr-Challenge-pyc-Decompile
https://github.com/kawa1lg1rl/wargame.kr-writeup/blob/master/pycdecompile.py
http://marciaplus.blogspot.com/2015/05/wargamekr-pyc-decompile.html
https://jeonyoungsin.tistory.com/35
https://mandu-mandu.tistory.com/367
https://0xor-writeup.readthedocs.io/zh/latest/wargame/reversing/[ctf.nuptzj.cn]_py/
https://w01fgang.tistory.com/69
https://blog.csdn.net/qq_35078631/article/details/77619302
