29
275 9 i
337 11 i
71 9 i
168 16 i
104 4 i
217 7 n
46 14 i
226 10 i
262 10 n
381 18 i
86 3 i
207 7 i
368 13 n
403 18 i
249 12 i
320 10 i
204 16 n
266 9 i
141 13 i
275 12 i
163 5 n
88 5 i
299 12 i
48 3 i
47 2 n
321 15 i
336 15 n
169 12 i
207 16 n
