https://raw.githubusercontent.com/BlakeBrown/HackerRank-Solutions/master/Tutorials/Cracking%20the%20Coding%20Interview/Stacks%20-%20Balanced%20Brackets.cpp
https://raw.githubusercontent.com/HamidTheGeek/HackerRankSolutions/master/Solutions/BalancedBrackets.cs
https://raw.githubusercontent.com/handracs2007/hackerrank_balanced_brackets/master/main/main.go
https://raw.githubusercontent.com/rshaghoulian/HackerRank_solutions/master/Data%20Structures/Stacks/Balanced%20Brackets/Solution.java
https://raw.githubusercontent.com/Katie-Wong/hackerrank-balance-brackets/master/app.js
https://raw.githubusercontent.com/ynyeh0221/HackerRank/master/Balanced%20Brackets.py
https://raw.githubusercontent.com/witekbobrowski/HackerRank/master/Cracking%20the%20Coding%20Interview/Data%20Structures/stacks-balanced-brackets.swift
