https://linuxsecurityblog.com/2018/10/12/owasp-security-shepherd-session-management-challenge-one-solution-lsb
https://github.com/udith6415/owasp-security-shepherd/blob/master/IT13029296_Offensive_Assign_1.pdf
https://susiecybersecurity.wordpress.com/category/%E8%B3%87%E8%A8%8A%E5%AE%89%E5%85%A8/09_owasp-security-shepherd/
https://5t0rm5had0w.wordpress.com/categories/walkthroughs/owasp-security-shepherd-walkthrough/
http://purpleskypeter.blogspot.com/2018/04/owasp-securityshepherd-session-mgmt1.html
