https://github.com/skiptomyliu/solutions-bwapp#xss---reflected-href
http://www.sec-art.net/2018/06/bwapp-buggy-web-application-xss.html
https://youtu.be/UNMb9a0fsgI?t=46s
https://cloud.tencent.com/developer/article/1078917
https://youtu.be/Ak8YXeqS2fw
