https://raw.githubusercontent.com/TraiOi/Wargame_WriteUp/master/Zixem/Zixem_SQLi/bruteforce.py
https://medium.com/@kamransaifullah786/comprehensive-zixem-sqli-challenges-solutions-2019-fb1830da2dba
https://github.com/TraiOi/Wargame_WriteUp/tree/master/Zixem/Zixem_SQLi
https://medium.com/ctf-writeups/union-sqli-challenges-zixem-write-up-4e74ad4e88b4
https://gist.github.com/cl6ardien/b494ba1b7d43bbf2e444eed7a50ec0e2
https://hqti.wordpress.com/2017/06/17/write-up-zixem-sqli/
https://mat4meblog.wordpress.com/2017/03/05/write-up-zixem-sqli/
