https://raw.githubusercontent.com/shiltemann/CTF-writeups-public/master/Hackvent_2014/alldays.md
https://github.com/VulnHub/ctf-writeups/raw/master/2018/angstromctf/binary/number-guess.md
https://medium.com/bugbountywriteup/angstromctf-writeups-4e3d51c3dc42
https://raw.githubusercontent.com/zst123/angstromctf-2018-writeups/master/Solved/Number_Guess/guessPublic.c
https://github.com/VulnHub/ctf-writeups/raw/master/2018/angstromctf/misc/waldo1.md
https://raw.githubusercontent.com/zst123/angstromctf-2018-writeups/master/Solved/Waldo_1/README.md
https://github.com/Beers4Flags/writeups/raw/master/2018/angstrom/web/md5/readme.md
https://rawsec.ml/en/angstromctf-2018-write-ups/
https://www.rootnetsec.com/angstromctf-md5/
https://raw.githubusercontent.com/zst123/angstromctf-2018-writeups/master/Solved/gif/README.md
https://github.com/VulnHub/ctf-writeups/raw/master/2018/angstromctf/re/rev-2.md
https://raw.githubusercontent.com/zst123/angstromctf-2018-writeups/master/Solved/Rev2/README.md
