https://raw.githubusercontent.com/RomaniukVadim/wargaming-challenges/master/hackthebox/Crypto/SickTeacher.txt
https://parasarora06.blogspot.com/2019/02/hack-box-sick-teacher.html
https://medium.com/write-ups-hackthebox/como-resolver-sick-teacher-hackthebox-32d9d251b6df
http://avengerinator.blogspot.com/2018/05/hack-box-hacktheboxeu-htb-crypto.html
