https://raw.githubusercontent.com/FivePente/Dijkstra/master/com/fivePente/dijkstra/Dijkstra.as
https://raw.githubusercontent.com/utd-projects/mips-dijkstra/master/dijkstra.asm
https://raw.githubusercontent.com/kolleo/dijkstra-in-awk/master/script_and_more/dijkstra.awk
https://gist.githubusercontent.com/hiroshiro/c0e9a06b3f16133c3ad3/raw/df21676a520dea2a8931048bd8275719134fca0a/dijkstra-s-algorithm.c
https://raw.githubusercontent.com/xpe/clj-dijkstra/master/src/dijkstra/core.clj
https://raw.githubusercontent.com/ydm/introduction-to-dijkstras-algorithm/master/js/main.coffee
https://gist.githubusercontent.com/MagallanesFito/61afb009986f0319774cb079b8914bb2/raw/608a670c336f4dd358f57003c35723e973919a0e/Dijkstra.cpp
https://raw.githubusercontent.com/N3evin/Dijkstra-Algorithm-Unity/master/Assets/Script/ShortestPath.cs
https://raw.githubusercontent.com/srrcboy/dijkstra-CUDA/master/dijkstra_cuda.cu
https://raw.githubusercontent.com/jakubpradzynski/dijkstra-algorithm-dart/master/lib/dijkstra_algorithm.dart
https://raw.githubusercontent.com/kuniyoshi/erl-study_dijkstra/master/lib/study_dijkstra.erl
https://raw.githubusercontent.com/applicake/elixir-of-dijkstra/master/graph.ex
https://raw.githubusercontent.com/Garrocho/Dijkstra/master/source/dijkstra/Dijkstra.f95
https://raw.githubusercontent.com/mizit/Path_find.gmx/master/scripts/dijkstra_path_find.gml
https://raw.githubusercontent.com/LdDl/ch/master/dijkstra.go
https://raw.githubusercontent.com/hcrudolph/haskell-dijkstra/master/rec/dijkstra.hs
https://raw.githubusercontent.com/VanceaV/codeabbey/master/src/problems_61_90/DijkstraInTheNetwork_84.java
https://raw.githubusercontent.com/andrewhayward/dijkstra/master/graph.js
https://raw.githubusercontent.com/AdamSHurwitz/Shortest-Weighted-Path/master/src/ShortestWeightedPath.kt
https://raw.githubusercontent.com/nohd0/Dijkstras/master/Dijkstras.m
https://raw.githubusercontent.com/nnahito/nim_searched/master/src/nim_searches.nim
https://raw.githubusercontent.com/seth0808/MazeSolver/master/Graph.pde
https://raw.githubusercontent.com/DonVictor/PHP-Dijkstra/master/Dijkstra.php
https://gist.githubusercontent.com/jacoby/d39db1e6eed22f4076345e4adecac660/raw/d3a93e71d2dd310565fbf2db63aed3e9cd8d7e77/dijkstra.pl
https://raw.githubusercontent.com/djs1193/codeabbey/master/q120.py
https://gist.githubusercontent.com/yaraki/1730288/raw/4154628a78da598c384516f82d1fef24915a1ee8/dijkstra.rb
https://raw.githubusercontent.com/aarroyoc/dijkstra/master/src/lib.rs
https://raw.githubusercontent.com/kwami-sossoe/scala-dijkstra/master/src/Dijkstra.scala
https://raw.githubusercontent.com/varunmiranda/PostgreSQL-Codes/master/Dijkstra's%20Algorithm.sql
https://raw.githubusercontent.com/jeapostrophe/dijkstra/master/dijkstra.ss
https://raw.githubusercontent.com/vegather/Pathfinder/master/Pathfinder/Pathfinder.swift
https://raw.githubusercontent.com/buleks/dijkstra_zynq/master/dijkstra_algorithm/dijkstra_algorithm.srcs/sources_1/ipshared/buleks/dijkstra_v1_0/3c9403db/hdl/verilog/dijkstra.v
https://raw.githubusercontent.com/haskaan/Dijkstra-s-Algorithm/master/DijkstraAlgorithm/DijkstraAlgorithm/Dijkstra.vb
