https://raw.githubusercontent.com/mahecode/Hackerrank-BirthdayCakeCandles/master/birthday_cake_candle.c
https://raw.githubusercontent.com/haotian-wu/Hackerrank_solutions/master/Warmup/birthday-cake-candles.cpp
https://raw.githubusercontent.com/jaboud/HackerRank-Birthday-Cake-Candles/master/HackerRank-Birthday-Cake-Candles/Program.cs
https://raw.githubusercontent.com/leeychee/hackerrank/master/practice/algorithms/warmup/birthday_cake_candles/main.go
https://raw.githubusercontent.com/yorkglez/HackerRank_BirthdayCakeCandles/master/src/com/birthdaycakecandles/app/Solution.java
https://raw.githubusercontent.com/sealanguage/hackerrankBirthdayCakeCandles/master/birthdayCakeCandles.js
https://raw.githubusercontent.com/patilcodes/Birthday-Cake-Candles-hacker-rank/master/README.md
https://raw.githubusercontent.com/danhenriquesc/hackerrank/master/algorithms/warmup/birthday_cake_candles.php
https://raw.githubusercontent.com/sapanz/Hackerrank-Problem-Solving-Python-Solutions/master/HackerRank-Birthday%20Cake%20Candles/Birthday_Cake_Candles.py
https://raw.githubusercontent.com/raghav97/Hackerrank-Solutions/master/bithday_cake_candles.rb
https://raw.githubusercontent.com/Rukusha/HackerRank-Birthday-Cake-Candles/master/main.swift
https://raw.githubusercontent.com/EngineerWebDeveloper/Birthday-Cake-Candles-Hackerrank/master/Solution
