https://www.youtube.com/watch?v=lwpCI1AWLnw
https://www.youtube.com/watch?v=hdCQxcGDPpk
https://www.youtube.com/watch?v=pbIZlqHYnx8
https://www.youtube.com/watch?v=dUFih_gppfA
https://www.youtube.com/watch?v=0PjGMte8IIU
https://cramhack.com/2018/11/28/reversing-challenge-snake-htb/
https://medium.com/@Tarun.N/htb-snake-challenge-walk-through-for-noobs-2475ea7a38ab
https://ishmapol.wordpress.com/2019/02/28/htb-the-snake/
https://dev.to/edoardopigaiani/htb-s-snake-writeup-12b6
