28
4 4 4 4 4
2 2 4 6 3
3 4 4 1 4
2 3 4 5 1
2 5 6 5 6
2 3 4 5 1
2 5 6 6 4
1 1 1 1 1
2 3 4 5 6
1 3 6 5 3
1 3 6 1 2
2 3 4 5 6
2 3 4 5 6
6 6 5 1 5
2 2 4 3 3
6 3 1 6 2
3 2 5 2 3
4 4 4 4 4
2 3 4 5 1
2 3 4 5 1
2 3 4 5 1
2 3 4 5 1
5 4 4 1 4
6 6 6 6 6
4 6 3 5 2
6 1 1 3 1
1 6 6 3 2
2 3 4 5 1
