https://github.com/VulnHub/ctf-writeups/raw/master/2018/angstromctf/binary/number-guess.md
https://medium.com/bugbountywriteup/angstromctf-writeups-4e3d51c3dc42
https://raw.githubusercontent.com/zst123/angstromctf-2018-writeups/master/Solved/Number_Guess/guessPublic.c
