https://dev.to/denisnutiu/root-me-elf-crackpass-with-nsas-ghidra-403o
https://raw.githubusercontent.com/s1syphu5/RootMe-Challenges/master/Cracking/ELF%20ARM%20-%20Crypted/README.md
https://nuculabs.dev/2019/03/09/elf-crackpass-ghidra/
https://re.kv.io/crackme/9.html
