f2ac27bd046b327650691ed6a30fb9e2
b15b63943b7a05cc8f0701163f1691e1
a26ff306525d12ba6028dc03e5bc41a9
76faebc6e506638d79af29e229774330
39fabbeaa613ca71e47325afd40e13b2
7670f4160d7e560204550f5d30a22b24
6859cb2155815badc7e99dbbc1c89271
8e0d02b497507d5fd9d78de1038655bf
a93ebf7abf9d00d1067f4b5a4efc2da1
26765a5c67b665af7d8d092899ea7758
d70ac297cb2a8c5602acbea98557766c
22b5890cdc55dabba0fc1ae597c3399a
0bba68cb838f3c97ce0bea87c1efb524
232198ee431325f50062d0921a3b594c
a89eb515d9f9bbc4aade0601c3667e87
9129296563206aefc1047a7dfb3b8c3e
2c854e1b8dc5afb4fa1c013052f817f0
cb7dbd63b8baea4a11b798163446307d0153462dv8Er
c7ef24ed5e4d1452e813fd74e9af8689a4c8ba9amth3
1c933aef4839c53bb2d108d9ff0059b97183ef6aHP1B
c0ef504fd8e1e556645e4197e4a4d7a4c5bcaebc8GDU
db159c2c43486dda34da64ce2653bd5405f23298hbrv
5947831d2b88870d7fa2017f8a974d0df743674czkWr
35ce3ae0b8c79ddc3d31139bcfb10f995ea486352emr
e40213fa78c6be6efa056bd88cb90877b294be9bqANB
6fbd3c4bc8e599e0e781e4d06b6bbe2b2dac2dadfviA
af4fc553db6bb1e4d97360be75b26da2ebcc2ee5YMj2
7f5517f555e720a16d6d01a959765e06a659765ePkSa
0e0717a7b2d76672926f89fb0683278d2411bc33sk4Z
3f84109d7e012ae0de106cf1ded74abae38075eewlaG
83e5bcb80edf77021caff331011aa7f660933a96Mxcq
d4a8f739182f3e7ce54929d01e13eda84f366f88LTde
b9cd4b53a0a5eac58e6f7ab1e55f88058b3ebbf4Sbuf
3ed68956133fdbd6b8cbc9bcf3f902661ae9f02cu0bP
