https://www.hackingarticles.in/ha-chanakya-vulnhub-walkthrough/
https://www.cnblogs.com/hack404/p/12129441.html
https://www.maritimecybersecurity.center/ha-chanakya-vulnhub-walkthrough/
https://developpaper.com/ha-chanakya-vulnhub-walkthrough/
