https://raw.githubusercontent.com/YetAnotherMinion/YAMScratch/master/CodeAbbey/brainfuck-sol/119.bf
https://raw.githubusercontent.com/djs1193/codeabbey/master/q119.py
https://raw.githubusercontent.com/JesseClarkND/codeabbey_BrainFudge/master/Brain%20Fibo
