https://www.fwhibbit.es/guia-metasploitable-2-parte-1
https://l33thacker.com/metasploitable-2-walkthrough/
https://resources.infosecinstitute.com/metasploitable-1-walkthrough/
https://metasploit.help.rapid7.com/docs/metasploitable-2-exploitability-guide
https://www.youtube.com/watch?v=VmBTZ8xMG14
https://www.youtube.com/watch?v=lBkj5K8XqIY
https://www.youtube.com/watch?v=0ys93gy-VEo
https://www.youtube.com/watch?v=ugmnDtqBBwA
https://www.youtube.com/watch?v=OZnuOOZcOoM
https://www.youtube.com/watch?v=0pReg9JwZn4
https://www.youtube.com/watch?v=TNnsOAwnmUA
https://www.youtube.com/watch?v=otHcThpz0T8
https://www.youtube.com/watch?v=FdzH9V4Klv0
https://www.youtube.com/watch?v=VLmV9x20fwU
https://www.computersecuritystudent.com/SECURITY_TOOLS/METASPLOITABLE/EXPLOIT/lesson10/index.html
https://311hrs.wordpress.com/2016/03/27/metasploitable-2-samba-part-4/
https://a.ndronic.us/guides/metasploit/html/index.html#__RefHeading___Toc1367_321873903
https://www.youtube.com/watch?v=r_eZwgFBHs4
https://akvilekiskis.com/work/metasploitable/index.html
https://kush.com.fj/blog/posts/2018-07-27-metasploitable2-walkthrough/#port-139-and-445-1
https://metaspolitable2.wordpress.com/2017/10/06/first-blog-post/#samba
