https://hackso.me/fourandsix-2.01-walkthrough/
https://laptrinhx.com/fourandsix-2-vulnhub-walkthrough-603448224/
https://www.punkinnovation.com/index.php/2019/05/06/vulnhub-walkthrough-fourandsix-2-01/
https://cowsayroot.com/walkthrough-fourandsix-2-01/
https://github.com/punkinnovation/FourAndSix-2.01
