https://tuanlinh.gitbook.io/ctf/root-me.org#some-noise
https://tuanlinh.gitbook.io/ctf/root-me.org#steganography
https://raw.githubusercontent.com/RomaniukVadim/wargaming-challenges/master/RootMe/steganography/some_noise.txt
