https://www.youtube.com/watch?v=oaJdbYWU5Qo
https://www.youtube.com/watch?v=O6byOADKaZg
https://www.youtube.com/watch?v=EoxqOGTDV7A
https://blog.barradell-johns.com/index.php/2018/08/28/blacklight-one-writeup/
https://www.peerlyst.com/posts/blacklight-vulnhub-ctf-walkthrough-motasem-hamdan
https://bzyo.github.io/blacklight-1/
https://www.thetechnews.online/2018/09/blacklight-vulnhub-ctf-challenge.html
https://hacker-news-online.blogspot.com/2018/08/blacklight-vulnhub-ctf-challenge.html
https://hackso.me/blacklight-1-walkthrough/
