https://computersecuritystudent.com/SECURITY_TOOLS/MUTILLIDAE/MUTILLIDAE_2511/lesson3/index.html
https://youtu.be/peaQSyDX6BU
https://youtu.be/1bXTq_qaa_U
https://youtu.be/VWZYyH0VewQ
http://y2u.be/lCfWYIO0pdU
http://minhnhatssc.blogspot.com/2013/12/bai-huong-dan-mutillidae-lesson-3.html

https://www.youtube.com/watch?v=GRuRK-bejgM&list=PLZOToVAK85MrsyNmNp0yyUTBXqKRTh623&index=33
