https://raw.githubusercontent.com/nayuki/Project-Euler-solutions/master/haskell/p106.hs
https://raw.githubusercontent.com/nayuki/Project-Euler-solutions/master/java/p106.java
https://raw.githubusercontent.com/nayuki/Project-Euler-solutions/master/python/p106.py
https://raw.githubusercontent.com/nayuki/Project-Euler-solutions/master/mathematica/p106.mathematica
