https://raw.githubusercontent.com/feix/ctf-writeup/master/canyouhackit/cryptography/solution3
http://juancho056.blogspot.com/search/label/Crypto%20Challenge%203
https://raw.githubusercontent.com/pastelito02/Challenges-sol/master/canyouhackit/Crypto/solution03
