https://0x00sec.org/t/vulnhub-troll-1-solution/5963/5
https://www.youtube.com/watch?v=IXC-05KGeGg
https://ethicalhackingguru.com/the-troll-1-vulnhub-walkthrough/
https://www.doyler.net/security-not-included/tr0ll-1-walkthrough-troll-in-the-os
https://medium.com/@KamranSaifullah/vulnhub-machine-troll-1-walkthrough-27c32e16f292
https://resources.infosecinstitute.com/vulnhub-machines-walkthrough-series-tr0ll-1/#gref
https://0x00sec.org/t/vulnhub-troll-1-solution/5963
https://netosec.com/tr0ll-1-vulnhub-walkthrough/
https://www.sw1tch.net/2014/08/16/walkthrough-for-tr0ll-1/
https://dmcxblue.net/2019/03/02/troll-write-up/
