https://raw.githubusercontent.com/pastelito02/Challenges-sol/master/Programming/codewars/opposite-number/harshreality.c
https://raw.githubusercontent.com/pastelito02/Challenges-sol/master/Programming/codewars/opposite-number/jslap.cc
https://raw.githubusercontent.com/pastelito02/Challenges-sol/master/Programming/codewars/opposite-number/iced.clj
https://raw.githubusercontent.com/pastelito02/Challenges-sol/master/Programming/codewars/opposite-number/smepple.coffee
https://raw.githubusercontent.com/pastelito02/Challenges-sol/master/Programming/codewars/opposite-number/jslap.cpp
https://raw.githubusercontent.com/pastelito02/Challenges-sol/master/Programming/codewars/opposite-number/Shanethegamer.cr
https://raw.githubusercontent.com/pastelito02/Challenges-sol/master/Programming/codewars/opposite-number/Unnamed.cs
https://raw.githubusercontent.com/pastelito02/Challenges-sol/master/Programming/codewars/opposite-number/mazzers.dart
https://raw.githubusercontent.com/pastelito02/Challenges-sol/master/Programming/codewars/opposite-number/tomcon.ex
https://raw.githubusercontent.com/pastelito02/Challenges-sol/master/Programming/codewars/opposite-number/tomcon.exs
https://raw.githubusercontent.com/pastelito02/Challenges-sol/master/Programming/codewars/opposite-number/thors.go
https://raw.githubusercontent.com/pastelito02/Challenges-sol/master/Programming/codewars/opposite-number/suic.groovy
https://raw.githubusercontent.com/pastelito02/Challenges-sol/master/Programming/codewars/opposite-number/Baldmaster.hs
https://raw.githubusercontent.com/pastelito02/Challenges-sol/master/Programming/codewars/opposite-number/sergioet.java
https://raw.githubusercontent.com/pastelito02/Challenges-sol/master/Programming/codewars/opposite-number/ayaka14732.jl
https://raw.githubusercontent.com/pastelito02/Challenges-sol/master/Programming/codewars/opposite-number/sergioet.js
https://raw.githubusercontent.com/pastelito02/Challenges-sol/master/Programming/codewars/opposite-number/Hypericum.kt
https://raw.githubusercontent.com/pastelito02/Challenges-sol/master/Programming/codewars/opposite-number/yunemregul.lua
https://raw.githubusercontent.com/pastelito02/Challenges-sol/master/Programming/codewars/opposite-number/monadius.ml
https://raw.githubusercontent.com/pastelito02/Challenges-sol/master/Programming/codewars/opposite-number/chenzhou.nim
https://raw.githubusercontent.com/pastelito02/Challenges-sol/master/Programming/codewars/opposite-number/asedov.php
https://raw.githubusercontent.com/pastelito02/Challenges-sol/master/Programming/codewars/opposite-number/psmilliorn.purs
https://raw.githubusercontent.com/pastelito02/Challenges-sol/master/Programming/codewars/opposite-number/Django99.py
https://raw.githubusercontent.com/pastelito02/Challenges-sol/master/Programming/codewars/opposite-number/ksifraggel.r
https://raw.githubusercontent.com/pastelito02/Challenges-sol/master/Programming/codewars/opposite-number/bin0m.rb
https://raw.githubusercontent.com/pastelito02/Challenges-sol/master/Programming/codewars/opposite-number/arrem.rs
https://raw.githubusercontent.com/pastelito02/Challenges-sol/master/Programming/codewars/opposite-number/suic.scala
https://raw.githubusercontent.com/pastelito02/Challenges-sol/master/Programming/codewars/opposite-number/emkaos.sh
https://raw.githubusercontent.com/pastelito02/Challenges-sol/master/Programming/codewars/opposite-number/ncubelic.swift
https://raw.githubusercontent.com/pastelito02/Challenges-sol/master/Programming/codewars/opposite-number/shasjian.ts
https://raw.githubusercontent.com/pastelito02/Challenges-sol/master/Programming/codewars/opposite-number/epaolinos.vb
