http://sp4hack.blogspot.com.co/2014/01/overthewire-bandit-level-18-to-level-19.html
https://codemaxx.github.io/writeups/OverTheWire/Bandit/level18/
https://hackmethod.com/overthewire-bandit-18/
http://hexjump.blogspot.com.co/2014/12/level-18-to-19.html
https://infamoussyn.com/2013/11/08/overthewire-bandit-level-0-25-writeup-completed/#level17
https://jdow.io/blog/2017/12/16/overthewire-bandit-wargame-walkthrough/#level-17---18
https://raw.githubusercontent.com/Cathon/mySolutions/master/overthewire/Bandit/Level_18.md
https://medium.com/@Kan1shka9/overthewire-wargames-bandit-walkthrough-df2b86826c67
https://github.com/milescrabill/overthewire-solutions/blob/master/Bandit.md
https://jhalon.github.io/over-the-wire-bandit2/
https://www.youtube.com/watch?v=RK8dljkbpbM
http://blog.zairo.kr/entry/OverTheWire-%E2%80%93-Bandit-Level-18?category=569917
https://raw.githubusercontent.com/Lorenyx/OverTheWire-Solutions/master/bandit/level_18.md
https://www.youtube.com/watch?v=v8v2GSEkgug
