https://raw.githubusercontent.com/lllllll-llll-llllll/codeabbey_autoit/master/08.au3
https://raw.githubusercontent.com/phuclevinh2000/CodeAbbey/master/Arithmetic%20Progression.c
https://raw.githubusercontent.com/pastelito02/Challenges-sol/master/Programming/Codeabbey/008/Eugenia_F.cc
https://raw.githubusercontent.com/DionysiosB/CodeAbbey/master/ArithmeticProgression.cpp
https://raw.githubusercontent.com/Tempurturtul/CodeAbbey/master/C%23/ArithmeticProgression.cs
https://raw.githubusercontent.com/pastelito02/Challenges-sol/master/Programming/Codeabbey/008/yozhikv10.d
https://raw.githubusercontent.com/pastelito02/Challenges-sol/master/Programming/Codeabbey/008/emmgame221.fs
https://raw.githubusercontent.com/vinitkantrod/go-codeabbey/master/15_arithematic_progression/main.go
https://raw.githubusercontent.com/pastelito02/Challenges-sol/master/Programming/Codeabbey/008/qaaperson.hs
https://raw.githubusercontent.com/bkawan/codeabbey_python/master/problem-8.ipynb
https://raw.githubusercontent.com/JFMurphy/Codeabbey-solutions/master/Java/P008_ArithmeticProgression.java
https://raw.githubusercontent.com/skilled19/sols/master/harv/codeabbey-8-arithmetic-progression.jl
https://raw.githubusercontent.com/DylanLenz/codeAbbey_Solutions_JavaScript/master/arithmeticProgression_codeAbbey_8.js
https://raw.githubusercontent.com/pastelito02/Challenges-sol/master/Programming/Codeabbey/008/shaatla.lisp
https://raw.githubusercontent.com/pastelito02/Challenges-sol/master/Programming/Codeabbey/008/atercattus.lua
https://raw.githubusercontent.com/skilled19/sols/master/harv/codeabbey-8-arithmetic-progression.ml
https://raw.githubusercontent.com/mpeshehonov/Codeabbey/master/practice/%238/index.php
https://raw.githubusercontent.com/pastelito02/Challenges-sol/master/Programming/Codeabbey/008/pearl_barley.pl
https://raw.githubusercontent.com/svaughnlewis/code-abbey-solutions/master/codeAbbey008_fahranheit-celsius-conversion.py
https://raw.githubusercontent.com/marclerodrigues/ruby_exercises/master/arithmetic_progression.rb
https://raw.githubusercontent.com/YetAnotherMinion/YAMScratch/master/CodeAbbey/rust-sol/src/8.rs
https://raw.githubusercontent.com/mmcdon20/code_abbey/master/src/main/scala/Abbey008.scala
https://raw.githubusercontent.com/pastelito02/Challenges-sol/master/Programming/Codeabbey/008/AginSquash.swift
https://raw.githubusercontent.com/skilled19/sols/master/harv/codeabbey-8-arithmetic-progression.vb
https://raw.githubusercontent.com/JesseClarkND/codeabbey_in_C-NET/master/Arithmetic%20Progression
