https://www.youtube.com/watch?v=Ru8YxARNS7M
https://medium.com/lamehtb/lame-htb-walkthrough-1d8d83d7447f
https://www.cybervie.com/blog/hackthebox-walkthrough-of-lame-box/
https://0xdf.gitlab.io/2020/04/07/htb-lame.html
https://www.freecodecamp.org/news/keep-calm-and-hack-the-box-lame/
https://ethicalhacs.com/lame-hackthebox-walkthrough/
https://medium.com/@jonathanchelmus/hack-the-box-walkthrough-lame-943189635c84
https://medium.com/bugbountywriteup/htb-lame-writeup-e47100aea88b
https://www.youtube.com/watch?v=ba4tNnDy6Lg
https://medium.com/@arkanoidctf/hackthebox-writeup-lame-fdbf2aa0f6d
