https://raw.githubusercontent.com/guillaume-nargeot/project-euler-clojure/master/src/project_euler/problem_214.clj
https://raw.githubusercontent.com/nayuki/Project-Euler-solutions/master/java/p214.java
https://raw.githubusercontent.com/nayuki/Project-Euler-solutions/master/python/p214.py
