https://www.youtube.com/watch?v=o7wkl5HVqyU
https://www.youtube.com/watch?v=hZZ3aQzxDcI
https://www.youtube.com/watch?v=S5vdxkF-OKg
https://www.youtube.com/watch?v=Y22uWkgx8hM
https://medium.com/@brianobilo/hack-the-box-how-to-get-the-invite-code-7512ae89230b
