https://raw.githubusercontent.com/nayuki/Project-Euler-solutions/master/haskell/p225.hs
https://raw.githubusercontent.com/nayuki/Project-Euler-solutions/master/java/p225.java
https://raw.githubusercontent.com/nayuki/Project-Euler-solutions/master/python/p225.py
