https://infamoussyn.com/2013/11/18/overthewire-narnia-level-0-4-writeup/#level2
http://blog.zairo.kr/entry/OverTheWire-%E2%80%93-Narnia-Level-2?category=570168
https://hackmethod.com/overthewire-narnia-2/
https://cplusperks.com/narnia/#level2
