https://www.youtube.com/watch?v=_dRrvJNdP-s
https://www.youtube.com/watch?v=mXhcyRiM3Go
https://www.youtube.com/watch?v=ricZvkquQtw
https://www.youtube.com/watch?v=0sf3JFr0Qx0
https://www.youtube.com/watch?v=nv7Hh3ityJ0
https://www.youtube.com/watch?v=3KWlOqSREic
https://www.youtube.com/watch?v=pllyz0c_p_M
https://codemonkeyism.co.uk/htb-chatterbox/
https://infosecuritygeek.com/hackthebox-chatterbox/
https://www.absolomb.com/2018-06-16-HackTheBox-Chatterbox/
https://video.hacking.reviews/2018/06/hackthebox-chatterbox.html
https://medium.com/ctf-writeups/chatterbox-write-up-htb-dcb0ab646a18
https://medium.com/bugbountywriteup/chatterbox-hack-the-box-writeup-dacb2ee8593d
https://dastinia.io/write-up/hackthebox/2018/05/13/hackthebox-chatterbox-writeup/
https://lastlistener.github.io/Walkthroughs--HackTheBox_Chatterbox_Walkthrough_and_Lessons.html
https://www.hackingarticles.in/hack-the-box-challenge-chatterbox-walkthrough/
