https://rundata.wordpress.com/2013/03/21/overthewire-bandit-wargame-solutions-1-24/
https://infamoussyn.com/2013/11/08/overthewire-bandit-level-0-25-writeup-completed/
https://jdow.io/blog/2017/12/16/overthewire-bandit-wargame-walkthrough/#level-5---6
https://www.yalpski.net/bandit-wargame/bandit-walkthrough-level-8
https://raw.githubusercontent.com/Cathon/mySolutions/master/overthewire/Bandit/Level_6.md
https://raw.githubusercontent.com/lv22/otw-natas/master/L06/level6.txt
https://medium.com/@Kan1shka9/overthewire-wargames-bandit-walkthrough-df2b86826c67
https://github.com/milescrabill/overthewire-solutions/blob/master/Bandit.md#level-6
https://www.youtube.com/watch?v=kQavV7biOJY
https://www.youtube.com/watch?v=34_DDIAkxdY
https://www.youtube.com/watch?v=WL8MA3LQmHQ
https://www.youtube.com/watch?v=dHZFjI10wik
https://hackmethod.com/overthewire-bandit-6/
https://raw.githubusercontent.com/Lorenyx/OverTheWire-Solutions/master/bandit/level_6.md
https://home.adelphi.edu/~ni21347/cybersecgames/OverTheWire/Bandit/index.html
https://www.youtube.com/watch?v=U8urYejzUYw
