https://computersecuritystudent.com/SECURITY_TOOLS/MUTILLIDAE/MUTILLIDAE_2511/lesson7/index.html
https://www.irongeek.com/i.php?page=videos/web-application-pen-testing-tutorials-with-mutillidae
https://youtu.be/XnOqNCd31B4
https://www.computersecuritystudent.com/SECURITY_TOOLS/MUTILLIDAE/MUTILLIDAE_2511/lesson7/index.html
